127.0.0.1 - - [29/May/2018:11:55:15 -0300] "GET / HTTP/1.1" 404 961
127.0.0.1 - - [29/May/2018:11:55:21 -0300] "GET /Produccion-WEB/ HTTP/1.1" 200 154288
127.0.0.1 - - [29/May/2018:11:55:24 -0300] "POST /Produccion-WEB/index.xhtml HTTP/1.1" 200 224
127.0.0.1 - - [29/May/2018:11:55:24 -0300] "GET /Produccion-WEB/download?contentType=pdf&fileName=ProduccionDiaria_1527605723235.pdf HTTP/1.1" 200 3358
127.0.0.1 - - [29/May/2018:11:56:16 -0300] "GET /Produccion-WEB/ HTTP/1.1" 200 154290
127.0.0.1 - - [29/May/2018:11:56:18 -0300] "POST /Produccion-WEB/index.xhtml HTTP/1.1" 200 224
127.0.0.1 - - [29/May/2018:11:56:18 -0300] "GET /Produccion-WEB/download?contentType=pdf&fileName=ProduccionDiaria_1527605778466.pdf HTTP/1.1" 200 4672
127.0.0.1 - - [29/May/2018:12:01:32 -0300] "GET /Produccion-WEB/ HTTP/1.1" 200 154286
127.0.0.1 - - [29/May/2018:12:01:34 -0300] "POST /Produccion-WEB/index.xhtml HTTP/1.1" 200 224
127.0.0.1 - - [29/May/2018:12:01:34 -0300] "GET /Produccion-WEB/download?contentType=pdf&fileName=ProduccionDiaria_1527606094597.pdf HTTP/1.1" 200 4725
127.0.0.1 - - [29/May/2018:12:05:38 -0300] "GET /Produccion-WEB/ HTTP/1.1" 200 154286
127.0.0.1 - - [29/May/2018:12:05:49 -0300] "GET /Produccion-WEB/ HTTP/1.1" 200 154290
127.0.0.1 - - [29/May/2018:12:05:51 -0300] "POST /Produccion-WEB/index.xhtml HTTP/1.1" 200 224
127.0.0.1 - - [29/May/2018:12:05:51 -0300] "GET /Produccion-WEB/download?contentType=pdf&fileName=ProduccionDiaria_1527606351016.pdf HTTP/1.1" 200 4725
127.0.0.1 - - [29/May/2018:12:06:19 -0300] "POST /Produccion-WEB/index.xhtml HTTP/1.1" 200 224
127.0.0.1 - - [29/May/2018:12:06:19 -0300] "GET /Produccion-WEB/download?contentType=pdf&fileName=ProduccionDiaria_1527606379031.pdf HTTP/1.1" 200 4723
127.0.0.1 - - [29/May/2018:12:08:23 -0300] "GET /Produccion-WEB/ HTTP/1.1" 200 154290
127.0.0.1 - - [29/May/2018:12:08:24 -0300] "POST /Produccion-WEB/index.xhtml HTTP/1.1" 200 224
127.0.0.1 - - [29/May/2018:12:08:24 -0300] "GET /Produccion-WEB/download?contentType=pdf&fileName=ProduccionDiaria_1527606504715.pdf HTTP/1.1" 200 4705
127.0.0.1 - - [29/May/2018:12:09:14 -0300] "POST /Produccion-WEB/index.xhtml HTTP/1.1" 200 224
127.0.0.1 - - [29/May/2018:12:09:14 -0300] "GET /Produccion-WEB/download?contentType=pdf&fileName=ProduccionDiaria_1527606554704.pdf HTTP/1.1" 200 4729
127.0.0.1 - - [29/May/2018:12:12:53 -0300] "POST /Produccion-WEB/index.xhtml HTTP/1.1" 200 224
127.0.0.1 - - [29/May/2018:12:12:53 -0300] "GET /Produccion-WEB/download?contentType=pdf&fileName=ProduccionDiaria_1527606773594.pdf HTTP/1.1" 200 4704
127.0.0.1 - - [29/May/2018:12:42:35 -0300] "POST /Produccion-WEB/index.xhtml HTTP/1.1" 200 148725
127.0.0.1 - - [29/May/2018:12:42:35 -0300] "GET /Produccion-WEB/javax.faces.resource/jsf.js.xhtml?ln=javax.faces&_=1527606503439 HTTP/1.1" 200 41988
127.0.0.1 - - [29/May/2018:14:03:37 -0300] "GET /Produccion-WEB/ HTTP/1.1" 200 154288
127.0.0.1 - - [29/May/2018:14:03:38 -0300] "POST /Produccion-WEB/index.xhtml HTTP/1.1" 200 148724
127.0.0.1 - - [29/May/2018:14:03:38 -0300] "GET /Produccion-WEB/javax.faces.resource/jsf.js.xhtml?ln=javax.faces&_=1527613417317 HTTP/1.1" 200 41988
127.0.0.1 - - [29/May/2018:14:03:40 -0300] "POST /Produccion-WEB/index.xhtml HTTP/1.1" 200 226
127.0.0.1 - - [29/May/2018:14:03:40 -0300] "GET /Produccion-WEB/download?contentType=pdf&fileName=ProduccionAgrupada_1527613419908.pdf HTTP/1.1" 200 15760
127.0.0.1 - - [29/May/2018:14:38:49 -0300] "POST /Produccion-WEB/index.xhtml HTTP/1.1" 200 287
127.0.0.1 - - [29/May/2018:14:49:32 -0300] "GET /Produccion-WEB/ HTTP/1.1" 200 154290
127.0.0.1 - - [29/May/2018:14:49:33 -0300] "POST /Produccion-WEB/index.xhtml HTTP/1.1" 200 148725
127.0.0.1 - - [29/May/2018:14:49:33 -0300] "GET /Produccion-WEB/javax.faces.resource/jsf.js.xhtml?ln=javax.faces&_=1527616172317 HTTP/1.1" 200 41988
127.0.0.1 - - [29/May/2018:14:49:40 -0300] "POST /Produccion-WEB/index.xhtml HTTP/1.1" 200 226
127.0.0.1 - - [29/May/2018:14:49:40 -0300] "GET /Produccion-WEB/download?contentType=pdf&fileName=ProduccionAgrupada_1527616180263.pdf HTTP/1.1" 200 15760
127.0.0.1 - - [29/May/2018:14:51:14 -0300] "POST /Produccion-WEB/index.xhtml HTTP/1.1" 200 226
127.0.0.1 - - [29/May/2018:14:51:14 -0300] "GET /Produccion-WEB/download?contentType=pdf&fileName=ProduccionAgrupada_1527616274530.pdf HTTP/1.1" 200 15878
127.0.0.1 - - [29/May/2018:15:29:09 -0300] "POST /Produccion-WEB/index.xhtml HTTP/1.1" 200 287
127.0.0.1 - - [29/May/2018:15:29:11 -0300] "POST /Produccion-WEB/index.xhtml HTTP/1.1" 200 287
127.0.0.1 - - [29/May/2018:15:29:13 -0300] "GET /Produccion-WEB/ HTTP/1.1" 500 13566
127.0.0.1 - - [29/May/2018:15:29:14 -0300] "GET /Produccion-WEB/ HTTP/1.1" 500 13566
127.0.0.1 - - [29/May/2018:15:29:29 -0300] "GET / HTTP/1.1" 404 961
127.0.0.1 - - [29/May/2018:15:29:30 -0300] "GET /Produccion-WEB/ HTTP/1.1" 500 13566
127.0.0.1 - - [29/May/2018:15:29:30 -0300] "GET /Produccion-WEB/ HTTP/1.1" 500 13566
127.0.0.1 - - [29/May/2018:15:30:24 -0300] "GET / HTTP/1.1" 404 961
127.0.0.1 - - [29/May/2018:15:30:40 -0300] "GET / HTTP/1.1" 404 961
127.0.0.1 - - [29/May/2018:15:30:41 -0300] "GET /Produccion-WEB/ HTTP/1.1" 500 13566
127.0.0.1 - - [29/May/2018:15:40:48 -0300] "GET /Produccion-WEB/ HTTP/1.1" 500 13566
127.0.0.1 - - [29/May/2018:15:40:49 -0300] "GET /Produccion-WEB/ HTTP/1.1" 500 13566
127.0.0.1 - - [29/May/2018:15:40:49 -0300] "GET /Produccion-WEB/ HTTP/1.1" 500 13566
127.0.0.1 - - [29/May/2018:15:40:49 -0300] "GET /Produccion-WEB/ HTTP/1.1" 500 13566
127.0.0.1 - - [29/May/2018:15:40:49 -0300] "GET /Produccion-WEB/ HTTP/1.1" 500 13566
127.0.0.1 - - [29/May/2018:15:55:34 -0300] "GET /Produccion-WEB/ HTTP/1.1" 200 151083
127.0.0.1 - - [29/May/2018:15:55:41 -0300] "POST /Produccion-WEB/index.xhtml HTTP/1.1" 200 145511
127.0.0.1 - - [29/May/2018:15:55:41 -0300] "GET /Produccion-WEB/javax.faces.resource/jsf.js.xhtml?ln=javax.faces&_=1527620134711 HTTP/1.1" 200 41988
127.0.0.1 - - [29/May/2018:15:55:44 -0300] "POST /Produccion-WEB/index.xhtml HTTP/1.1" 200 226
127.0.0.1 - - [29/May/2018:15:55:44 -0300] "GET /Produccion-WEB/download?contentType=pdf&fileName=ProduccionAgrupada_1527620143152.pdf HTTP/1.1" 200 16150
127.0.0.1 - - [29/May/2018:16:11:05 -0300] "POST /Produccion-WEB/index.xhtml HTTP/1.1" 200 226
127.0.0.1 - - [29/May/2018:16:11:05 -0300] "GET /Produccion-WEB/download?contentType=pdf&fileName=ProduccionAgrupada_1527621064968.pdf HTTP/1.1" 200 15411
127.0.0.1 - - [29/May/2018:16:12:20 -0300] "POST /Produccion-WEB/index.xhtml HTTP/1.1" 200 226
127.0.0.1 - - [29/May/2018:16:12:20 -0300] "GET /Produccion-WEB/download?contentType=pdf&fileName=ProduccionAgrupada_1527621139772.pdf HTTP/1.1" 200 15437
127.0.0.1 - - [29/May/2018:16:13:28 -0300] "POST /Produccion-WEB/index.xhtml HTTP/1.1" 200 226
127.0.0.1 - - [29/May/2018:16:13:28 -0300] "GET /Produccion-WEB/download?contentType=pdf&fileName=ProduccionAgrupada_1527621208040.pdf HTTP/1.1" 200 15542
127.0.0.1 - - [29/May/2018:16:14:33 -0300] "POST /Produccion-WEB/index.xhtml HTTP/1.1" 200 226
127.0.0.1 - - [29/May/2018:16:14:33 -0300] "GET /Produccion-WEB/download?contentType=pdf&fileName=ProduccionAgrupada_1527621273604.pdf HTTP/1.1" 200 15511
127.0.0.1 - - [29/May/2018:16:15:27 -0300] "POST /Produccion-WEB/index.xhtml HTTP/1.1" 200 226
127.0.0.1 - - [29/May/2018:16:15:27 -0300] "GET /Produccion-WEB/download?contentType=pdf&fileName=ProduccionAgrupada_1527621327081.pdf HTTP/1.1" 200 15590
127.0.0.1 - - [29/May/2018:16:15:43 -0300] "POST /Produccion-WEB/index.xhtml HTTP/1.1" 200 226
127.0.0.1 - - [29/May/2018:16:15:43 -0300] "GET /Produccion-WEB/download?contentType=pdf&fileName=ProduccionAgrupada_1527621343001.pdf HTTP/1.1" 200 15781
127.0.0.1 - - [29/May/2018:16:17:29 -0300] "POST /Produccion-WEB/index.xhtml HTTP/1.1" 200 226
127.0.0.1 - - [29/May/2018:16:17:29 -0300] "GET /Produccion-WEB/download?contentType=pdf&fileName=ProduccionAgrupada_1527621449684.pdf HTTP/1.1" 200 15893
127.0.0.1 - - [29/May/2018:16:18:05 -0300] "POST /Produccion-WEB/index.xhtml HTTP/1.1" 200 226
127.0.0.1 - - [29/May/2018:16:18:05 -0300] "GET /Produccion-WEB/download?contentType=pdf&fileName=ProduccionAgrupada_1527621485829.pdf HTTP/1.1" 200 15788
127.0.0.1 - - [29/May/2018:16:20:00 -0300] "POST /Produccion-WEB/index.xhtml HTTP/1.1" 200 226
127.0.0.1 - - [29/May/2018:16:20:00 -0300] "GET /Produccion-WEB/download?contentType=xls&fileName=produccionAgrupada_1527621600011.xls HTTP/1.1" 200 10772
127.0.0.1 - - [29/May/2018:16:20:40 -0300] "POST /Produccion-WEB/index.xhtml HTTP/1.1" 200 145511
127.0.0.1 - - [29/May/2018:16:20:40 -0300] "GET /Produccion-WEB/javax.faces.resource/jsf.js.xhtml?ln=javax.faces&_=1527620134712 HTTP/1.1" 200 41988
127.0.0.1 - - [29/May/2018:16:20:41 -0300] "POST /Produccion-WEB/index.xhtml HTTP/1.1" 200 224
127.0.0.1 - - [29/May/2018:16:20:41 -0300] "GET /Produccion-WEB/download?contentType=xls&fileName=produccionDiaria_1527621641624.xls HTTP/1.1" 200 6157
127.0.0.1 - - [29/May/2018:16:22:22 -0300] "GET / HTTP/1.1" 404 961
127.0.0.1 - - [29/May/2018:16:22:41 -0300] "GET /Produccion-WEB/ HTTP/1.1" 200 151081
127.0.0.1 - - [29/May/2018:16:22:44 -0300] "POST /Produccion-WEB/index.xhtml HTTP/1.1" 200 224
127.0.0.1 - - [29/May/2018:16:22:44 -0300] "GET /Produccion-WEB/download?contentType=xls&fileName=produccionDiaria_1527621764131.xls HTTP/1.1" 200 6157
127.0.0.1 - - [29/May/2018:16:25:50 -0300] "POST /Produccion-WEB/index.xhtml HTTP/1.1" 200 224
127.0.0.1 - - [29/May/2018:16:25:50 -0300] "GET /Produccion-WEB/download?contentType=xls&fileName=produccionDiaria_1527621790230.xls HTTP/1.1" 200 6157
127.0.0.1 - - [29/May/2018:16:26:51 -0300] "POST /Produccion-WEB/index.xhtml HTTP/1.1" 200 1667
127.0.0.1 - - [29/May/2018:16:27:50 -0300] "POST /Produccion-WEB/index.xhtml HTTP/1.1" 200 224
127.0.0.1 - - [29/May/2018:16:27:50 -0300] "GET /Produccion-WEB/download?contentType=xls&fileName=produccionDiaria_1527622069252.xls HTTP/1.1" 200 6157
127.0.0.1 - - [29/May/2018:16:28:31 -0300] "POST /Produccion-WEB/index.xhtml HTTP/1.1" 200 224
127.0.0.1 - - [29/May/2018:16:28:31 -0300] "GET /Produccion-WEB/download?contentType=xls&fileName=produccionDiaria_1527622109277.xls HTTP/1.1" 200 6157
127.0.0.1 - - [29/May/2018:16:30:12 -0300] "POST /Produccion-WEB/index.xhtml HTTP/1.1" 200 224
127.0.0.1 - - [29/May/2018:16:30:12 -0300] "GET /Produccion-WEB/download?contentType=xls&fileName=produccionDiaria_1527622209261.xls HTTP/1.1" 200 6157
127.0.0.1 - - [29/May/2018:16:30:20 -0300] "POST /Produccion-WEB/index.xhtml HTTP/1.1" 200 145510
127.0.0.1 - - [29/May/2018:16:30:20 -0300] "GET /Produccion-WEB/javax.faces.resource/jsf.js.xhtml?ln=javax.faces&_=1527621761224 HTTP/1.1" 200 41988
127.0.0.1 - - [29/May/2018:16:30:21 -0300] "POST /Produccion-WEB/index.xhtml HTTP/1.1" 200 227
127.0.0.1 - - [29/May/2018:16:30:21 -0300] "GET /Produccion-WEB/download?contentType=xls&fileName=produccionAcumulada_1527622221609.xls HTTP/1.1" 200 7693
127.0.0.1 - - [29/May/2018:16:30:30 -0300] "POST /Produccion-WEB/index.xhtml HTTP/1.1" 200 145510
127.0.0.1 - - [29/May/2018:16:30:30 -0300] "GET /Produccion-WEB/javax.faces.resource/jsf.js.xhtml?ln=javax.faces&_=1527621761225 HTTP/1.1" 200 41988
127.0.0.1 - - [29/May/2018:16:30:36 -0300] "POST /Produccion-WEB/index.xhtml HTTP/1.1" 200 226
127.0.0.1 - - [29/May/2018:16:30:36 -0300] "GET /Produccion-WEB/download?contentType=xls&fileName=produccionAgrupada_1527622233396.xls HTTP/1.1" 200 10260
127.0.0.1 - - [29/May/2018:16:37:40 -0300] "POST /Produccion-WEB/index.xhtml HTTP/1.1" 200 145510
127.0.0.1 - - [29/May/2018:16:37:40 -0300] "GET /Produccion-WEB/javax.faces.resource/jsf.js.xhtml?ln=javax.faces&_=1527621761226 HTTP/1.1" 200 41988
127.0.0.1 - - [29/May/2018:16:37:44 -0300] "POST /Produccion-WEB/index.xhtml HTTP/1.1" 200 227
127.0.0.1 - - [29/May/2018:16:37:44 -0300] "GET /Produccion-WEB/download?contentType=xls&fileName=produccionAcumulada_1527622664844.xls HTTP/1.1" 200 7693
127.0.0.1 - - [29/May/2018:16:38:10 -0300] "GET /Produccion-WEB/ HTTP/1.1" 200 151081
127.0.0.1 - - [29/May/2018:16:38:11 -0300] "POST /Produccion-WEB/index.xhtml HTTP/1.1" 200 145510
127.0.0.1 - - [29/May/2018:16:38:11 -0300] "GET /Produccion-WEB/javax.faces.resource/jsf.js.xhtml?ln=javax.faces&_=1527622690375 HTTP/1.1" 200 41988
127.0.0.1 - - [29/May/2018:16:38:17 -0300] "POST /Produccion-WEB/index.xhtml HTTP/1.1" 200 227
127.0.0.1 - - [29/May/2018:16:38:17 -0300] "POST /Produccion-WEB/index.xhtml HTTP/1.1" 200 227
127.0.0.1 - - [29/May/2018:16:38:17 -0300] "GET /Produccion-WEB/download?contentType=pdf&fileName=ProduccionAcumulada_1527622696759.pdf HTTP/1.1" 200 6044
127.0.0.1 - - [29/May/2018:16:38:18 -0300] "POST /Produccion-WEB/index.xhtml HTTP/1.1" 200 227
127.0.0.1 - - [29/May/2018:16:38:18 -0300] "GET /Produccion-WEB/download?contentType=pdf&fileName=ProduccionAcumulada_1527622698633.pdf HTTP/1.1" 200 6044
127.0.0.1 - - [29/May/2018:16:38:18 -0300] "POST /Produccion-WEB/index.xhtml HTTP/1.1" 200 227
127.0.0.1 - - [29/May/2018:16:38:18 -0300] "GET /Produccion-WEB/download?contentType=pdf&fileName=ProduccionAcumulada_1527622698731.pdf HTTP/1.1" 200 6044
127.0.0.1 - - [29/May/2018:16:38:18 -0300] "POST /Produccion-WEB/index.xhtml HTTP/1.1" 200 227
127.0.0.1 - - [29/May/2018:16:38:18 -0300] "GET /Produccion-WEB/download?contentType=pdf&fileName=ProduccionAcumulada_1527622698849.pdf HTTP/1.1" 200 6044
127.0.0.1 - - [29/May/2018:16:38:19 -0300] "POST /Produccion-WEB/index.xhtml HTTP/1.1" 200 227
127.0.0.1 - - [29/May/2018:16:38:19 -0300] "GET /Produccion-WEB/download?contentType=pdf&fileName=ProduccionAcumulada_1527622698950.pdf HTTP/1.1" 200 6044
127.0.0.1 - - [29/May/2018:16:38:19 -0300] "POST /Produccion-WEB/index.xhtml HTTP/1.1" 200 227
127.0.0.1 - - [29/May/2018:16:38:19 -0300] "GET /Produccion-WEB/download?contentType=pdf&fileName=ProduccionAcumulada_1527622699061.pdf HTTP/1.1" 200 6044
127.0.0.1 - - [29/May/2018:16:40:49 -0300] "POST /Produccion-WEB/index.xhtml HTTP/1.1" 200 145510
127.0.0.1 - - [29/May/2018:16:40:49 -0300] "GET /Produccion-WEB/javax.faces.resource/jsf.js.xhtml?ln=javax.faces&_=1527622690376 HTTP/1.1" 200 41988
127.0.0.1 - - [29/May/2018:16:40:52 -0300] "POST /Produccion-WEB/index.xhtml HTTP/1.1" 200 224
127.0.0.1 - - [29/May/2018:16:40:52 -0300] "GET /Produccion-WEB/download?contentType=pdf&fileName=ProduccionDiaria_1527622851957.pdf HTTP/1.1" 200 3839
127.0.0.1 - - [29/May/2018:16:45:19 -0300] "POST /Produccion-WEB/index.xhtml HTTP/1.1" 200 224
127.0.0.1 - - [29/May/2018:16:45:19 -0300] "GET /Produccion-WEB/download?contentType=pdf&fileName=ProduccionDiaria_1527623119131.pdf HTTP/1.1" 200 3839
127.0.0.1 - - [29/May/2018:16:47:12 -0300] "POST /Produccion-WEB/index.xhtml HTTP/1.1" 200 145510
127.0.0.1 - - [29/May/2018:16:47:12 -0300] "GET /Produccion-WEB/javax.faces.resource/jsf.js.xhtml?ln=javax.faces&_=1527622690377 HTTP/1.1" 200 41988
127.0.0.1 - - [29/May/2018:16:47:15 -0300] "POST /Produccion-WEB/index.xhtml HTTP/1.1" 200 227
127.0.0.1 - - [29/May/2018:16:47:15 -0300] "GET /Produccion-WEB/download?contentType=pdf&fileName=ProduccionAcumulada_1527623235140.pdf HTTP/1.1" 200 6045
127.0.0.1 - - [29/May/2018:17:01:49 -0300] "GET / HTTP/1.1" 404 961
127.0.0.1 - - [29/May/2018:17:01:50 -0300] "GET /Produccion-WEB/ HTTP/1.1" 200 151083
127.0.0.1 - - [29/May/2018:17:02:11 -0300] "POST /Produccion-WEB/index.xhtml HTTP/1.1" 200 289
127.0.0.1 - - [29/May/2018:17:02:25 -0300] "GET /Produccion-WEB/ HTTP/1.1" 200 151081
127.0.0.1 - - [29/May/2018:17:02:26 -0300] "GET /Produccion-WEB/ HTTP/1.1" 200 151083
127.0.0.1 - - [29/May/2018:17:02:28 -0300] "POST /Produccion-WEB/index.xhtml HTTP/1.1" 200 289
127.0.0.1 - - [29/May/2018:17:02:29 -0300] "POST /Produccion-WEB/index.xhtml HTTP/1.1" 200 289
127.0.0.1 - - [29/May/2018:17:02:30 -0300] "POST /Produccion-WEB/index.xhtml HTTP/1.1" 200 289
127.0.0.1 - - [29/May/2018:17:02:30 -0300] "POST /Produccion-WEB/index.xhtml HTTP/1.1" 200 289
127.0.0.1 - - [29/May/2018:17:02:31 -0300] "POST /Produccion-WEB/index.xhtml HTTP/1.1" 200 289
127.0.0.1 - - [29/May/2018:17:02:31 -0300] "POST /Produccion-WEB/index.xhtml HTTP/1.1" 200 289
127.0.0.1 - - [29/May/2018:17:02:31 -0300] "POST /Produccion-WEB/index.xhtml HTTP/1.1" 200 289
127.0.0.1 - - [29/May/2018:17:02:31 -0300] "POST /Produccion-WEB/index.xhtml HTTP/1.1" 200 289
127.0.0.1 - - [29/May/2018:17:02:31 -0300] "POST /Produccion-WEB/index.xhtml HTTP/1.1" 200 289
127.0.0.1 - - [29/May/2018:17:02:31 -0300] "POST /Produccion-WEB/index.xhtml HTTP/1.1" 200 289
127.0.0.1 - - [29/May/2018:17:03:04 -0300] "GET /Produccion-WEB/javax.faces.resource/bootstrap-3.3.7-dist/css/bootstrap.min.css.map HTTP/1.1" 404 1125
127.0.0.1 - - [29/May/2018:17:03:07 -0300] "POST /Produccion-WEB/index.xhtml HTTP/1.1" 200 289
127.0.0.1 - - [29/May/2018:17:03:08 -0300] "POST /Produccion-WEB/index.xhtml HTTP/1.1" 200 289
127.0.0.1 - - [29/May/2018:17:03:09 -0300] "POST /Produccion-WEB/index.xhtml HTTP/1.1" 200 289
127.0.0.1 - - [29/May/2018:17:03:09 -0300] "POST /Produccion-WEB/index.xhtml HTTP/1.1" 200 289
127.0.0.1 - - [29/May/2018:17:03:09 -0300] "POST /Produccion-WEB/index.xhtml HTTP/1.1" 200 289
127.0.0.1 - - [29/May/2018:17:03:09 -0300] "POST /Produccion-WEB/index.xhtml HTTP/1.1" 200 289
127.0.0.1 - - [29/May/2018:17:03:09 -0300] "POST /Produccion-WEB/index.xhtml HTTP/1.1" 200 289
127.0.0.1 - - [29/May/2018:17:03:09 -0300] "POST /Produccion-WEB/index.xhtml HTTP/1.1" 200 289
127.0.0.1 - - [29/May/2018:17:05:00 -0300] "GET / HTTP/1.1" 404 961
127.0.0.1 - - [29/May/2018:17:05:00 -0300] "GET /Produccion-WEB/ HTTP/1.1" 200 151079
127.0.0.1 - - [29/May/2018:17:05:02 -0300] "POST /Produccion-WEB/index.xhtml HTTP/1.1" 200 224
127.0.0.1 - - [29/May/2018:17:05:02 -0300] "GET /Produccion-WEB/download?contentType=pdf&fileName=ProduccionDiaria_1527624301658.pdf HTTP/1.1" 200 3839
127.0.0.1 - - [29/May/2018:17:05:10 -0300] "POST /Produccion-WEB/index.xhtml HTTP/1.1" 200 145509
127.0.0.1 - - [29/May/2018:17:05:10 -0300] "GET /Produccion-WEB/javax.faces.resource/jsf.js.xhtml?ln=javax.faces&_=1527624300871 HTTP/1.1" 200 41988
127.0.0.1 - - [29/May/2018:17:05:11 -0300] "POST /Produccion-WEB/index.xhtml HTTP/1.1" 200 227
127.0.0.1 - - [29/May/2018:17:05:11 -0300] "GET /Produccion-WEB/download?contentType=pdf&fileName=ProduccionAcumulada_1527624311668.pdf HTTP/1.1" 200 6051
127.0.0.1 - - [29/May/2018:17:36:52 -0300] "POST /Produccion-WEB/index.xhtml HTTP/1.1" 200 287
